{
  "users": {
    "_model": "User",
    "homer": {
      "firstName": "Homer",
      "lastName": "Simpson",
      "email": "homer@simpson.com",
      "password": "$2a$10$.HLGt62i7OVwk0P.vjgDmOJOLZqrFSWXoWPh6MImCtIAxG9CnPqaC",
      "regdate": "30-10-2016"
    },
    "marge": {
      "firstName": "Marge",
      "lastName": "Simpson",
      "email": "marge@simpson.com",
      "password": "$2a$10$k61x2gUqQ6ujqnVx.oHIVuFGz7XhQBOmtUDOxdfQxmIV14AdaiNxm",
      "regdate": "30-10-2016"
    },
    "bart": {
      "firstName": "Bart",
      "lastName": "Simpson",
      "email": "bart@simpson.com",
      "password": "$2a$10$IhoSxJL.foXKxyrOYmt1mu9H1DrhZckl4UDXaltGXpoxA/PdfLN/6",
      "regdate": "31-10-2016",
      "following": ["->users.marge","->users.homer"]
    },
    "lisa": {
      "firstName": "Lisa",
      "lastName": "Simpson",
      "email": "lisa@simpson.com",
      "password": "$2a$10$VCxxywHMiSnoSecBQs1VEezuDYgKCVBdj7Wq5TFXDazteQ3JfnacK",
      "regdate": "31-10-2016"
    },
    "barney": {
      "firstName": "Barney",
      "lastName": "Gumble",
      "email": "barney@gumble.com",
      "password": "$2a$10$O0nkdYxjn1S/hlE2DbtYSufxuvTkUOEW0K3djSlcVfka2c8KThhJO",
      "regdate": "1-11-2016"
    }
  },
  "tweets": {
    "_model": "Tweet",
    "one": {
      "tweetor": "->users.homer",
      "content": "Homer's 1st tweet",
      "date": "31-10-2016 11:45"
    },
    "two": {
      "tweetor": "->users.homer",
      "content": "Homer's 2nd tweet",
      "date": "31-10-2016 11:59"
    },
    "three": {
      "tweetor": "->users.marge",
      "content": "Marge's 1st tweet",
      "date": "31-10-2016 13:21"
    },
    "four": {
      "tweetor": "->users.bart",
      "content": "Bart's 1st tweet",
      "date": "31-10-2016 14:09"
    },
    "five": {
      "tweetor": "->users.lisa",
      "content": "Lisa's 1st tweet",
      "date": "31-10-2016 21:37"
    },
    "six": {
      "tweetor": "->users.barney",
      "content": "Barney's 1st tweet",
      "date": "01-11-2016 10:06"
    },
    "seven": {
      "tweetor": "->users.homer",
      "content": "Homer's 3rd tweet",
      "date": "01-11-2016 12:22"
    },
    "eight": {
      "tweetor": "->users.bart",
      "content": "Bart's 2nd tweet",
      "date": "01-11-2016 16:10"
    }
  },
  "administrators": {
    "_model": "Administrator",
    "a1": {
      "email": "admin@mytweet.ie",
      "password": "secret"
    }
  }
}
